Misc Star City

U+0020
........ 256
........ 257
........ 258
........ 259
........ 260
........ 261
........ 262
........ 263

U+0021
....#... 320
....#... 321
....#... 322
....#... 323
....#... 324
........ 325
....#... 326
........ 327

U+0022
...#.#.. 384
...#.#.. 385
..#.#... 386
........ 387
........ 388
........ 389
........ 390
........ 391

U+0023
........ 448
..#.#... 449
.#####.. 450
..#.#... 451
.#####.. 452
..#.#... 453
........ 454
........ 455

U+0024
...#.... 512
..####.. 513
.#.#.... 514
..###... 515
...#.#.. 516
.####... 517
...#.... 518
........ 519

U+0025
.#....#. 576
#.#..#.. 577
.#..#... 578
...#.... 579
..#..#.. 580
.#..#.#. 581
#....#.. 582
........ 583

U+0026
..##.... 640
.#..#... 641
.#..#... 642
#.#..... 643
#..#.#.. 644
#...#... 645
.###.##. 646
........ 647

U+0027
....#... 704
....#... 705
...#.... 706
........ 707
........ 708
........ 709
........ 710
........ 711

U+0028
....#... 768
...#.... 769
..#..... 770
..#..... 771
..#..... 772
..#..... 773
...#.... 774
....#... 775

U+0029
..#..... 832
...#.... 833
....#... 834
....#... 835
....#... 836
....#... 837
...#.... 838
..#..... 839

U+002A
........ 896
........ 897
..#.#... 898
...#.... 899
..#.#... 900
........ 901
........ 902
........ 903

U+002B
........ 960
........ 961
...#.... 962
..###... 963
...#.... 964
........ 965
........ 966
........ 967

U+002C
........ 1024
........ 1025
........ 1026
........ 1027
........ 1028
....#... 1029
....#... 1030
...#.... 1031

U+002D
........ 1088
........ 1089
........ 1090
........ 1091
..####.. 1092
........ 1093
........ 1094
........ 1095

U+002E
........ 1152
........ 1153
........ 1154
........ 1155
........ 1156
........ 1157
....#... 1158
........ 1159

U+002F
.....#.. 1216
.....#.. 1217
....#... 1218
....#... 1219
...#.... 1220
...#.... 1221
..#..... 1222
..#..... 1223

U+0030
...##... 1280
..#..#.. 1281
.#....#. 1282
.#....#. 1283
.#....#. 1284
..#..#.. 1285
...##... 1286
........ 1287

U+0031
....#... 1344
...##... 1345
....#... 1346
....#... 1347
....#... 1348
....#... 1349
....#... 1350
........ 1351

U+0032
..####.. 1408
.#....#. 1409
.....#.. 1410
...##... 1411
..#..... 1412
.#...... 1413
.######. 1414
........ 1415

U+0033
.######. 1472
.....#.. 1473
....#... 1474
.....#.. 1475
......#. 1476
.#....#. 1477
..####.. 1478
........ 1479

U+0034
.....#.. 1536
....##.. 1537
...#.#.. 1538
..#..#.. 1539
.######. 1540
.....#.. 1541
.....#.. 1542
........ 1543

U+0035
.######. 1600
.#...... 1601
.#...... 1602
.#####.. 1603
......#. 1604
......#. 1605
.#####.. 1606
........ 1607

U+0036
..####.. 1664
.#....#. 1665
.#...... 1666
.#####.. 1667
.#....#. 1668
.#....#. 1669
..####.. 1670
........ 1671

U+0037
.######. 1728
......#. 1729
.....#.. 1730
....#... 1731
....#... 1732
...#.... 1733
...#.... 1734
........ 1735

U+0038
..####.. 1792
.#....#. 1793
.#....#. 1794
..####.. 1795
.#....#. 1796
.#....#. 1797
..####.. 1798
........ 1799

U+0039
..####.. 1856
.#....#. 1857
.#....#. 1858
..#####. 1859
......#. 1860
.#....#. 1861
..####.. 1862
........ 1863

U+003A
........ 1920
........ 1921
....#... 1922
........ 1923
....#... 1924
........ 1925
........ 1926
........ 1927

U+003B
........ 1984
........ 1985
........ 1986
....#... 1987
........ 1988
....#... 1989
....#... 1990
...#.... 1991

U+003C
........ 2048
....##.. 2049
..##.... 2050
.#...... 2051
..##.... 2052
....##.. 2053
........ 2054
........ 2055

U+003D
........ 2112
........ 2113
..####.. 2114
........ 2115
..####.. 2116
........ 2117
........ 2118
........ 2119

U+003E
........ 2176
..##.... 2177
....##.. 2178
......#. 2179
....##.. 2180
..##.... 2181
........ 2182
........ 2183

U+003F
..####.. 2240
.#....#. 2241
......#. 2242
.....#.. 2243
....#... 2244
........ 2245
....#... 2246
........ 2247

U+0040
........ 2304
...##... 2305
...##... 2306
....##.. 2307
....##.. 2308
.##..##. 2309
.##..##. 2310
........ 2311

U+0041
...#.... 2368
..#.#... 2369
..#.#... 2370
.#...#.. 2371
.#####.. 2372
#.....#. 2373
#.....#. 2374
........ 2375

U+0042
######.. 2432
#.....#. 2433
#.....#. 2434
######.. 2435
#.....#. 2436
#.....#. 2437
######.. 2438
........ 2439

U+0043
..####.. 2496
.#....#. 2497
#....... 2498
#....... 2499
#....... 2500
.#....#. 2501
..####.. 2502
........ 2503

U+0044
#####... 2560
#....#.. 2561
#.....#. 2562
#.....#. 2563
#.....#. 2564
#....#.. 2565
#####... 2566
........ 2567

U+0045
#######. 2624
#....... 2625
#....... 2626
#######. 2627
#....... 2628
#....... 2629
#######. 2630
........ 2631

U+0046
#######. 2688
#....... 2689
#....... 2690
#######. 2691
#....... 2692
#....... 2693
#....... 2694
........ 2695

U+0047
..####.. 2752
.#....#. 2753
#....... 2754
#...###. 2755
#.....#. 2756
.#....#. 2757
..####.. 2758
........ 2759

U+0048
#.....#. 2816
#.....#. 2817
#.....#. 2818
#######. 2819
#.....#. 2820
#.....#. 2821
#.....#. 2822
........ 2823

U+0049
....#... 2880
....#... 2881
....#... 2882
....#... 2883
....#... 2884
....#... 2885
....#... 2886
........ 2887

U+004A
.....#.. 2944
.....#.. 2945
.....#.. 2946
.....#.. 2947
.....#.. 2948
.#...#.. 2949
..###... 2950
........ 2951

U+004B
#.....#. 3008
#....#.. 3009
#...#... 3010
#..#.... 3011
#.#.#... 3012
##...#.. 3013
#.....#. 3014
........ 3015

U+004C
.#...... 3072
.#...... 3073
.#...... 3074
.#...... 3075
.#...... 3076
.#...... 3077
.######. 3078
........ 3079

U+004D
#.....#. 3136
##...##. 3137
#.#.#.#. 3138
#..#..#. 3139
#.....#. 3140
#.....#. 3141
#.....#. 3142
........ 3143

U+004E
##....#. 3200
#.#...#. 3201
#.#...#. 3202
#..#..#. 3203
#...#.#. 3204
#...#.#. 3205
#....##. 3206
........ 3207

U+004F
..###... 3264
.#...#.. 3265
#.....#. 3266
#.....#. 3267
#.....#. 3268
.#...#.. 3269
..###... 3270
........ 3271

U+0050
######.. 3328
#.....#. 3329
#.....#. 3330
######.. 3331
#....... 3332
#....... 3333
#....... 3334
........ 3335

U+0051
..###... 3392
.#...#.. 3393
#.....#. 3394
#.....#. 3395
#...#.#. 3396
.#...#.. 3397
..###.#. 3398
........ 3399

U+0052
######.. 3456
#.....#. 3457
#.....#. 3458
######.. 3459
#...#... 3460
#....#.. 3461
#.....#. 3462
........ 3463

U+0053
.#####.. 3520
#.....#. 3521
#....... 3522
.#####.. 3523
......#. 3524
#.....#. 3525
.#####.. 3526
........ 3527

U+0054
#######. 3584
...#.... 3585
...#.... 3586
...#.... 3587
...#.... 3588
...#.... 3589
...#.... 3590
........ 3591

U+0055
#.....#. 3648
#.....#. 3649
#.....#. 3650
#.....#. 3651
#.....#. 3652
#.....#. 3653
.#####.. 3654
........ 3655

U+0056
#.....#. 3712
#.....#. 3713
.#...#.. 3714
.#...#.. 3715
..#.#... 3716
..#.#... 3717
...#.... 3718
........ 3719

U+0057
#.....#. 3776
#.....#. 3777
#.....#. 3778
.#.#.#.. 3779
.#.#.#.. 3780
..#.#... 3781
..#.#... 3782
........ 3783

U+0058
#.....#. 3840
.#...#.. 3841
..#.#... 3842
...#.... 3843
..#.#... 3844
.#...#.. 3845
#.....#. 3846
........ 3847

U+0059
#.....#. 3904
.#...#.. 3905
..#.#... 3906
...#.... 3907
...#.... 3908
...#.... 3909
...#.... 3910
........ 3911

U+005A
#######. 3968
......#. 3969
....##.. 3970
...#.... 3971
.##..... 3972
#....... 3973
#######. 3974
........ 3975

U+005B
..###... 4032
..#..... 4033
..#..... 4034
..#..... 4035
..#..... 4036
..#..... 4037
..###... 4038
........ 4039

U+005C
..#..... 4096
..#..... 4097
...#.... 4098
...#.... 4099
....#... 4100
....#... 4101
.....#.. 4102
.....#.. 4103

U+005D
..###... 4160
....#... 4161
....#... 4162
....#... 4163
....#... 4164
....#... 4165
..###... 4166
........ 4167

U+005E
...##... 4224
..#..#.. 4225
........ 4226
........ 4227
........ 4228
........ 4229
........ 4230
........ 4231

U+005F
........ 4288
........ 4289
........ 4290
........ 4291
........ 4292
........ 4293
.######. 4294
........ 4295

U+0060
....#... 4352
....#... 4353
.....#.. 4354
........ 4355
........ 4356
........ 4357
........ 4358
........ 4359

U+0061
........ 4416
........ 4417
...###.. 4418
......#. 4419
...####. 4420
..#...#. 4421
...####. 4422
........ 4423

U+0062
..#..... 4480
..#..... 4481
..#.##.. 4482
..##..#. 4483
..#...#. 4484
..##..#. 4485
..#.##.. 4486
........ 4487

U+0063
........ 4544
........ 4545
...###.. 4546
..#...#. 4547
..#..... 4548
..#...#. 4549
...###.. 4550
........ 4551

U+0064
......#. 4608
......#. 4609
...##.#. 4610
..#..##. 4611
..#...#. 4612
..#..##. 4613
...##.#. 4614
........ 4615

U+0065
........ 4672
........ 4673
...###.. 4674
..#...#. 4675
..#####. 4676
..#..... 4677
...###.. 4678
........ 4679

U+0066
....###. 4736
...#.... 4737
..#####. 4738
...#.... 4739
...#.... 4740
...#.... 4741
...#.... 4742
........ 4743

U+0067
........ 4800
........ 4801
...####. 4802
..#...#. 4803
..#..##. 4804
...##.#. 4805
......#. 4806
..####.. 4807

U+0068
..#..... 4864
..#..... 4865
..#.##.. 4866
..##..#. 4867
..#...#. 4868
..#...#. 4869
..#...#. 4870
........ 4871

U+0069
........ 4928
....#... 4929
........ 4930
....#... 4931
....#... 4932
....#... 4933
....#... 4934
........ 4935

U+006A
........ 4992
.....#.. 4993
........ 4994
.....#.. 4995
.....#.. 4996
.....#.. 4997
.....#.. 4998
...##... 4999

U+006B
........ 5056
..#..... 5057
..#...#. 5058
..#..#.. 5059
..#.#... 5060
..##.#.. 5061
..#...#. 5062
........ 5063

U+006C
........ 5120
....#... 5121
....#... 5122
....#... 5123
....#... 5124
....#... 5125
....#... 5126
........ 5127

U+006D
........ 5184
........ 5185
..##.#.. 5186
..#.#.#. 5187
..#.#.#. 5188
..#.#.#. 5189
..#.#.#. 5190
........ 5191

U+006E
........ 5248
........ 5249
..#.##.. 5250
..##..#. 5251
..#...#. 5252
..#...#. 5253
..#...#. 5254
........ 5255

U+006F
........ 5312
........ 5313
...###.. 5314
..#...#. 5315
..#...#. 5316
..#...#. 5317
...###.. 5318
........ 5319

U+0070
........ 5376
........ 5377
..#.##.. 5378
..##..#. 5379
..#...#. 5380
..##..#. 5381
..#.##.. 5382
..#..... 5383

U+0071
........ 5440
........ 5441
...##.#. 5442
..#..##. 5443
..#...#. 5444
..#..##. 5445
...##.#. 5446
......#. 5447

U+0072
........ 5504
........ 5505
..#..##. 5506
..#.#... 5507
..##.... 5508
..#..... 5509
..#..... 5510
........ 5511

U+0073
........ 5568
........ 5569
...####. 5570
..#..... 5571
...###.. 5572
......#. 5573
..####.. 5574
........ 5575

U+0074
...#.... 5632
...#.... 5633
..#####. 5634
...#.... 5635
...#.... 5636
...#.... 5637
....###. 5638
........ 5639

U+0075
........ 5696
........ 5697
..#...#. 5698
..#...#. 5699
..#...#. 5700
..#..##. 5701
...##.#. 5702
........ 5703

U+0076
........ 5760
........ 5761
..#...#. 5762
..#...#. 5763
...#.#.. 5764
...#.#.. 5765
....#... 5766
........ 5767

U+0077
........ 5824
........ 5825
..#...#. 5826
..#...#. 5827
..#.#.#. 5828
...#.#.. 5829
...#.#.. 5830
........ 5831

U+0078
........ 5888
........ 5889
..#...#. 5890
...#.#.. 5891
....#... 5892
...#.#.. 5893
..#...#. 5894
........ 5895

U+0079
........ 5952
........ 5953
..#...#. 5954
..#...#. 5955
...#..#. 5956
....#.#. 5957
.....#.. 5958
..###... 5959

U+007A
........ 6016
........ 6017
..#####. 6018
......#. 6019
...###.. 6020
..#..... 6021
..#####. 6022
........ 6023

U+007B
....#... 6080
...#.... 6081
...#.... 6082
..#..... 6083
...#.... 6084
...#.... 6085
...#.... 6086
....#... 6087

U+007C
....#... 6144
...#.... 6145
...#.... 6146
...#.... 6147
...#.... 6148
...#.... 6149
...#.... 6150
..#..... 6151

U+007D
..#..... 6208
...#.... 6209
...#.... 6210
....#... 6211
...#.... 6212
...#.... 6213
...#.... 6214
..#..... 6215

U+007E
........ 6272
........ 6273
........ 6274
..##..#. 6275
.#..##.. 6276
........ 6277
........ 6278
........ 6279

U+007F
#######. 6336
#######. 6337
#######. 6338
#######. 6339
#######. 6340
#######. 6341
#######. 6342
........ 6343
